{
	"home": {
		"data": {
			"shop_info": {
				"shop_name": "我的店",
				"branch_name": "\u6c5f\u4e8c\u8def\u5e97",
				"avatar": "http:\/\/mamaqunaer.oss-cn-shanghai.aliyuncs.com\/20171201\/ZcawdYtnn3.jpg",
				"contact": "13456789900",
				"id": "1",
				"notice": "1212412",
				"shop_qrcode": "http:\/\/moresing-v3.img-cn-shanghai.aliyuncs.com\/201612\/L32tMbF1PUiy40A9.png",
				"qr_code": "http:\/\/mamaqunaer.oss-cn-shanghai.aliyuncs.com\/android\/201711\/607bde41c4c2e540d7f57b47f65c3748.JPEG",
				"province": "110000",
				"city": "110100",
				"district": "110101",
				"area_name": "滴滴滴",
				"address": "\u8def100\u53f7",
				"lng": "38.911251220094",
				"lat": "121.60083184468",
				"is_partner": 0,
				"city_name": "懂得"
			},
			"activity_seckill": {
				"setting": {
					"title": "\u79d2\u6740",
					"banner": "http:\/\/mamaqunaer.oss-cn-shanghai.aliyuncs.com\/20171108\/rD4X7CPsEE.jpg",
					"module_id": "shop_seckill",
					"style": 1,
					"sort": 1,
					"is_show": 1,
					"is_banner_show": 1
				},
				"items": [{
					"id": 3589,
					"name": "\u60e0\u5c14\u987f \u6c7d\u8f66\u513f\u7ae5\u5b89\u5168\u5ea7\u6905 \u8f66\u8f7d\u5a74\u513f\u5b9d\u5b9d\u5b89\u5168\u5ea7\u6905 0-6\u5c81 \u7687\u5bb6\u76d4\u5b9d",
					"sell_point": "",
					"pic_url": "http:\/\/moresing-v3.img-cn-shanghai.aliyuncs.com\/201703\/tJQXpaE3wCqMGKhe.jpg",
					"sales_price": 50,
					"market_price": 40,
					"total": 10,
					"sold_num": 1,
					"is_buy": 0,
					"is_collect": 0,
					"is_stars": 0,
					"is_free_shipping": 0,
					"is_haitao": 0,
					"as_status": 1
				}, {
					"id": 3631,
					"name": "\u81ea\u52a9\u4e0a\u67b6-\u53cc\u89c4\u683c",
					"sell_point": "",
					"pic_url": "http:\/\/moresing-v3.img-cn-shanghai.aliyuncs.com\/201612\/14822017659936046.jpg",
					"sales_price": 1000,
					"market_price": 888,
					"total": 24,
					"sold_num": 23,
					"is_buy": 0,
					"is_collect": 0,
					"is_stars": 0,
					"is_free_shipping": 0,
					"is_haitao": 0,
					"as_status": 0
				}]
			},
			"shop_recommend": {
				"setting": {
					"title": "\u5e97\u4e3b\u63a8\u8350",
					"banner": "http:\/\/mamaqunaer.oss-cn-shanghai.aliyuncs.com\/20171108\/rD4X7CPsEE.jpg",
					"module_id": "shop_recommend",
					"style": 1,
					"sort": 0,
					"is_show": 1,
					"is_banner_show": 1
				},
				"items": [{
					"id": 1848,
					"shop_id": 1,
					"name": "\u4fdd\u7a0e\u533a\uff01\u54c8\u7f57\u95eababy wash&care \u5a74\u513f\u6ecb\u6da6\u6c90\u6d74\u9732200ml",
					"sell_point": "",
					"brand_id": 0,
					"brand_name": "",
					"market_price": 3200,
					"sales_price": 2900,
					"pic_url": "http:\/\/moresing-v3.img-cn-shanghai.aliyuncs.com\/201703\/qsHfd3lei7GMPuhv.jpg",
					"sold_quantity": 0,
					"quantity": 85,
					"is_virtual": 0,
					"fx_item_id": 1106,
					"status": 1,
					"approve_status": 1,
					"sort_order": 100,
					"is_haitao": 0,
					"is_recommend": 1,
					"use_start_time": 0,
					"use_end_time": 0,
					"is_stars": 0,
					"is_buy": null,
					"is_collect": null
				}, {
					"id": 1846,
					"shop_id": 1,
					"name": "\u7f8e\u56fd\u827e\u7ef4\u8bfaAveeno\u5a74\u513f\u65e0\u6cea2\u54081\u6d17\u53d1\u6c90\u6d74\u9732354ml",
					"sell_point": "",
					"brand_id": 0,
					"brand_name": "",
					"market_price": 12600,
					"sales_price": 9500,
					"pic_url": "http:\/\/moresing-v3.img-cn-shanghai.aliyuncs.com\/201703\/IMVFl2U7dyxs8D6o.jpg",
					"sold_quantity": 0,
					"quantity": 231,
					"is_virtual": 0,
					"fx_item_id": 1102,
					"status": 1,
					"approve_status": 1,
					"sort_order": 100,
					"is_haitao": 0,
					"is_recommend": 1,
					"use_start_time": 0,
					"use_end_time": 0,
					"is_stars": 0,
					"is_buy": null,
					"is_collect": null
				}, {
					"id": 1835,
					"shop_id": 1,
					"name": "\u3010\u884c\u8d27\u3011\u5927\u738b\u7ef4E\u73af\u8d34\u7eb8\u5c3f\u88e4S84\u7247",
					"sell_point": "",
					"brand_id": 0,
					"brand_name": "",
					"market_price": 50000,
					"sales_price": 47800,
					"pic_url": "http:\/\/moresing-v3.img-cn-shanghai.aliyuncs.com\/201702\/9R5KwCHQATXovdIj.jpg",
					"sold_quantity": 0,
					"quantity": 583,
					"is_virtual": 0,
					"fx_item_id": 1394,
					"status": 1,
					"approve_status": 1,
					"sort_order": 100,
					"is_haitao": 0,
					"is_recommend": 1,
					"use_start_time": 0,
					"use_end_time": 0,
					"is_stars": 0,
					"is_buy": null,
					"is_collect": null
				}]
			},
			"goods": {
				"setting": {
					"title": "\u5168\u90e8\u5546\u54c1",
					"banner": "",
					"module_id": "goods",
					"style": 0,
					"sort": 1,
					"is_show": 1,
					"is_banner_show": 0
				},
				"items": [{
					"id": 3631,
					"shop_id": 1,
					"name": "ujbfgh",
					"sell_point": "",
					"brand_id": 0,
					"brand_name": "vughij",
					"market_price": 474,
					"sales_price": 1,
					"pic_url": "http:\/\/mamaqunaer.oss-cn-shanghai.aliyuncs.com\/android\/201711\/ff9e85124638b593212148aad47c893b.JPEG",
					"sold_quantity": 1,
					"quantity": 534,
					"is_virtual": 0,
					"fx_item_id": 0,
					"status": 1,
					"approve_status": 1,
					"sort_order": 100,
					"is_haitao": 0,
					"is_recommend": 0,
					"use_start_time": 0,
					"use_end_time": 0,
					"is_stars": 0,
					"is_buy": null,
					"is_collect": null
				}, {
					"id": 3630,
					"shop_id": 1,
					"name": "\u60e0\u5c14\u987f 9\u4e2a\u6708-6\u5c81\u5b9d\u5b9d\u5b89\u5168\u5ea7\u6905 \u6c7d\u8f66\u7528\u8f66\u8f7d\u5a74\u513f\u7ae5\u5b89\u5168\u5ea7\u6905 \u8fd0\u52a8\u5b9d",
					"sell_point": "",
					"brand_id": 0,
					"brand_name": "",
					"market_price": 109900,
					"sales_price": 78500,
					"pic_url": "http:\/\/moresing-v3.img-cn-shanghai.aliyuncs.com\/201703\/9NnQyWgPvXKJ0YOU.jpg",
					"sold_quantity": 0,
					"quantity": 300,
					"is_virtual": 0,
					"fx_item_id": 1041,
					"status": 1,
					"approve_status": 1,
					"sort_order": 100,
					"is_haitao": 0,
					"is_recommend": 0,
					"use_start_time": 0,
					"use_end_time": 0,
					"is_stars": 0,
					"is_buy": null,
					"is_collect": null
				}, {
					"id": 3568,
					"shop_id": 1,
					"name": "\u3010\u884c\u8d27\u3011\u5927\u738b GOO.N \u7eb8\u5c3f\u88e4S58\u7247",
					"sell_point": "",
					"brand_id": 0,
					"brand_name": "",
					"market_price": 76000,
					"sales_price": 62400,
					"pic_url": "http:\/\/moresing-v3.img-cn-shanghai.aliyuncs.com\/201702\/8flj5QnA7xUrb3ND.jpg",
					"sold_quantity": 0,
					"quantity": 89,
					"is_virtual": 0,
					"fx_item_id": 1388,
					"status": 1,
					"approve_status": 1,
					"sort_order": 100,
					"is_haitao": 0,
					"is_recommend": 0,
					"use_start_time": 0,
					"use_end_time": 0,
					"is_stars": 0,
					"is_buy": null,
					"is_collect": null
				}, {
					"id": 3567,
					"shop_id": 1,
					"name": "\u60e0\u5c14\u987f \u5a74\u513f\u5b89\u5168\u5ea7\u69059\u4e2a\u6708-12\u5c81\u8f66\u7528\u5b9d\u5b9d\u8f66\u8f7d\u513f\u7ae5\u5b89\u5168\u5ea7\u6905 \u5168\u80fd\u5b9d",
					"sell_point": "",
					"brand_id": 0,
					"brand_name": "",
					"market_price": 129900,
					"sales_price": 92800,
					"pic_url": "http:\/\/moresing-v3.img-cn-shanghai.aliyuncs.com\/201703\/h7f3QjWGAHBrkUTz.jpg",
					"sold_quantity": 0,
					"quantity": 400,
					"is_virtual": 0,
					"fx_item_id": 1040,
					"status": 1,
					"approve_status": 1,
					"sort_order": 100,
					"is_haitao": 0,
					"is_recommend": 0,
					"use_start_time": 0,
					"use_end_time": 0,
					"is_stars": 0,
					"is_buy": null,
					"is_collect": null
				}, {
					"id": 3566,
					"shop_id": 1,
					"name": "\u89e3\u653e\u519b",
					"sell_point": "",
					"brand_id": 0,
					"brand_name": "\u57fa\u7763\u6559",
					"market_price": 1,
					"sales_price": 1,
					"pic_url": "http:\/\/moresing-v3.img-cn-shanghai.aliyuncs.com\/201711\/15100451141371822.jpg",
					"sold_quantity": 5,
					"quantity": 85,
					"is_virtual": 0,
					"fx_item_id": 0,
					"status": 1,
					"approve_status": 1,
					"sort_order": 100,
					"is_haitao": 0,
					"is_recommend": 0,
					"use_start_time": 0,
					"use_end_time": 0,
					"is_stars": 0,
					"is_buy": null,
					"is_collect": null
				}, {
					"id": 3564,
					"shop_id": 1,
					"name": "\u60e0\u5c14\u987f \u513f\u7ae5\u5b89\u5168\u5ea7\u6905 isofix\u6c7d\u8f66\u5b9d\u5b9d\u5b89\u5168\u5ea7\u69053\u5c81-12\u5c81 \u8327\u4e4b\u65c5FIT",
					"sell_point": "",
					"brand_id": 0,
					"brand_name": "",
					"market_price": 102900,
					"sales_price": 69300,
					"pic_url": "http:\/\/moresing-v3.img-cn-shanghai.aliyuncs.com\/201703\/t2iwHrbW6CFUYTLJ.jpg",
					"sold_quantity": 0,
					"quantity": 400,
					"is_virtual": 0,
					"fx_item_id": 1038,
					"status": 1,
					"approve_status": 1,
					"sort_order": 100,
					"is_haitao": 0,
					"is_recommend": 0,
					"use_start_time": 0,
					"use_end_time": 0,
					"is_stars": 0,
					"is_buy": null,
					"is_collect": null
				}, {
					"id": 3563,
					"shop_id": 1,
					"name": "2\u7f50\u88c5\u4fdd\u7a0e\u533a\u76f4\u53d1\uff01\u6fb3\u6d32\u7231\u4ed6\u7f8eAptamil\u5a74\u513f\u914d\u65b9\u5976\u7c892\u6bb56~12M900g",
					"sell_point": "",
					"brand_id": 0,
					"brand_name": "",
					"market_price": 59000,
					"sales_price": 56200,
					"pic_url": "http:\/\/moresing-v3.img-cn-shanghai.aliyuncs.com\/201702\/EWFD5XBYUuMbafCO.jpg",
					"sold_quantity": 0,
					"quantity": 2039,
					"is_virtual": 0,
					"fx_item_id": 1024,
					"status": 1,
					"approve_status": 1,
					"sort_order": 100,
					"is_haitao": 0,
					"is_recommend": 0,
					"use_start_time": 0,
					"use_end_time": 0,
					"is_stars": 0,
					"is_buy": null,
					"is_collect": null
				}, {
					"id": 3562,
					"shop_id": 1,
					"name": "2\u7f50\u88c5\u4fdd\u7a0e\u533a\u76f4\u53d1\uff01\u6fb3\u6d32\u7231\u4ed6\u7f8eAptamil\u5a74\u513f\u914d\u65b9\u5976\u7c894\u6bb524M 900g",
					"sell_point": "",
					"brand_id": 0,
					"brand_name": "",
					"market_price": 56800,
					"sales_price": 34800,
					"pic_url": "http:\/\/moresing-v3.img-cn-shanghai.aliyuncs.com\/201702\/ALSPxC6c5ZjXuWT8.jpg",
					"sold_quantity": 0,
					"quantity": 2148,
					"is_virtual": 0,
					"fx_item_id": 1026,
					"status": 1,
					"approve_status": 1,
					"sort_order": 100,
					"is_haitao": 0,
					"is_recommend": 0,
					"use_start_time": 0,
					"use_end_time": 0,
					"is_stars": 0,
					"is_buy": null,
					"is_collect": null
				}]
			},
			"page": {
				"totalCount": 93,
				"pageCount": 12,
				"currentPage": 1,
				"perPage": 8
			},
			"mx_goods": null
		},
		"code": 200,
		"message": "OK",
		"success": true
	},
	"moreGoods": {
		"data": {
			"items": [{
				"id": 3631,
				"shop_id": 1,
				"name": "ujbfgh",
				"sell_point": "",
				"brand_id": 0,
				"brand_name": "vughij",
				"market_price": 474,
				"sales_price": 1,
				"pic_url": "http:\/\/mamaqunaer.oss-cn-shanghai.aliyuncs.com\/android\/201711\/ff9e85124638b593212148aad47c893b.JPEG",
				"sold_quantity": 1,
				"quantity": 534,
				"is_virtual": 0,
				"fx_item_id": 0,
				"status": 1,
				"approve_status": 1,
				"sort_order": 100,
				"is_haitao": 0,
				"is_recommend": 0,
				"use_start_time": 0,
				"use_end_time": 0,
				"is_stars": 0,
				"is_buy": null,
				"is_collect": null
				}, {
				"id": 3630,
				"shop_id": 1,
				"name": "\u60e0\u5c14\u987f 9\u4e2a\u6708-6\u5c81\u5b9d\u5b9d\u5b89\u5168\u5ea7\u6905 \u6c7d\u8f66\u7528\u8f66\u8f7d\u5a74\u513f\u7ae5\u5b89\u5168\u5ea7\u6905 \u8fd0\u52a8\u5b9d",
				"sell_point": "",
				"brand_id": 0,
				"brand_name": "",
				"market_price": 109900,
				"sales_price": 78500,
				"pic_url": "http:\/\/moresing-v3.img-cn-shanghai.aliyuncs.com\/201703\/9NnQyWgPvXKJ0YOU.jpg",
				"sold_quantity": 0,
				"quantity": 300,
				"is_virtual": 0,
				"fx_item_id": 1041,
				"status": 1,
				"approve_status": 1,
				"sort_order": 100,
				"is_haitao": 0,
				"is_recommend": 0,
				"use_start_time": 0,
				"use_end_time": 0,
				"is_stars": 0,
				"is_buy": null,
				"is_collect": null
				}, {
				"id": 3568,
				"shop_id": 1,
				"name": "\u3010\u884c\u8d27\u3011\u5927\u738b GOO.N \u7eb8\u5c3f\u88e4S58\u7247",
				"sell_point": "",
				"brand_id": 0,
				"brand_name": "",
				"market_price": 76000,
				"sales_price": 62400,
				"pic_url": "http:\/\/moresing-v3.img-cn-shanghai.aliyuncs.com\/201702\/8flj5QnA7xUrb3ND.jpg",
				"sold_quantity": 0,
				"quantity": 89,
				"is_virtual": 0,
				"fx_item_id": 1388,
				"status": 1,
				"approve_status": 1,
				"sort_order": 100,
				"is_haitao": 0,
				"is_recommend": 0,
				"use_start_time": 0,
				"use_end_time": 0,
				"is_stars": 0,
				"is_buy": null,
				"is_collect": null
				}, {
				"id": 3567,
				"shop_id": 1,
				"name": "\u60e0\u5c14\u987f \u5a74\u513f\u5b89\u5168\u5ea7\u69059\u4e2a\u6708-12\u5c81\u8f66\u7528\u5b9d\u5b9d\u8f66\u8f7d\u513f\u7ae5\u5b89\u5168\u5ea7\u6905 \u5168\u80fd\u5b9d",
				"sell_point": "",
				"brand_id": 0,
				"brand_name": "",
				"market_price": 129900,
				"sales_price": 92800,
				"pic_url": "http:\/\/moresing-v3.img-cn-shanghai.aliyuncs.com\/201703\/h7f3QjWGAHBrkUTz.jpg",
				"sold_quantity": 0,
				"quantity": 400,
				"is_virtual": 0,
				"fx_item_id": 1040,
				"status": 1,
				"approve_status": 1,
				"sort_order": 100,
				"is_haitao": 0,
				"is_recommend": 0,
				"use_start_time": 0,
				"use_end_time": 0,
				"is_stars": 0,
				"is_buy": null,
				"is_collect": null
				}, {
				"id": 3566,
				"shop_id": 1,
				"name": "\u89e3\u653e\u519b",
				"sell_point": "",
				"brand_id": 0,
				"brand_name": "\u57fa\u7763\u6559",
				"market_price": 1,
				"sales_price": 1,
				"pic_url": "http:\/\/moresing-v3.img-cn-shanghai.aliyuncs.com\/201711\/15100451141371822.jpg",
				"sold_quantity": 5,
				"quantity": 85,
				"is_virtual": 0,
				"fx_item_id": 0,
				"status": 1,
				"approve_status": 1,
				"sort_order": 100,
				"is_haitao": 0,
				"is_recommend": 0,
				"use_start_time": 0,
				"use_end_time": 0,
				"is_stars": 0,
				"is_buy": null,
				"is_collect": null
				}, {
				"id": 3564,
				"shop_id": 1,
				"name": "\u60e0\u5c14\u987f \u513f\u7ae5\u5b89\u5168\u5ea7\u6905 isofix\u6c7d\u8f66\u5b9d\u5b9d\u5b89\u5168\u5ea7\u69053\u5c81-12\u5c81 \u8327\u4e4b\u65c5FIT",
				"sell_point": "",
				"brand_id": 0,
				"brand_name": "",
				"market_price": 102900,
				"sales_price": 69300,
				"pic_url": "http:\/\/moresing-v3.img-cn-shanghai.aliyuncs.com\/201703\/t2iwHrbW6CFUYTLJ.jpg",
				"sold_quantity": 0,
				"quantity": 400,
				"is_virtual": 0,
				"fx_item_id": 1038,
				"status": 1,
				"approve_status": 1,
				"sort_order": 100,
				"is_haitao": 0,
				"is_recommend": 0,
				"use_start_time": 0,
				"use_end_time": 0,
				"is_stars": 0,
				"is_buy": null,
				"is_collect": null
				}, {
				"id": 3563,
				"shop_id": 1,
				"name": "2\u7f50\u88c5\u4fdd\u7a0e\u533a\u76f4\u53d1\uff01\u6fb3\u6d32\u7231\u4ed6\u7f8eAptamil\u5a74\u513f\u914d\u65b9\u5976\u7c892\u6bb56~12M900g",
				"sell_point": "",
				"brand_id": 0,
				"brand_name": "",
				"market_price": 59000,
				"sales_price": 56200,
				"pic_url": "http:\/\/moresing-v3.img-cn-shanghai.aliyuncs.com\/201702\/EWFD5XBYUuMbafCO.jpg",
				"sold_quantity": 0,
				"quantity": 2039,
				"is_virtual": 0,
				"fx_item_id": 1024,
				"status": 1,
				"approve_status": 1,
				"sort_order": 100,
				"is_haitao": 0,
				"is_recommend": 0,
				"use_start_time": 0,
				"use_end_time": 0,
				"is_stars": 0,
				"is_buy": null,
				"is_collect": null
				}, {
				"id": 3562,
				"shop_id": 1,
				"name": "2\u7f50\u88c5\u4fdd\u7a0e\u533a\u76f4\u53d1\uff01\u6fb3\u6d32\u7231\u4ed6\u7f8eAptamil\u5a74\u513f\u914d\u65b9\u5976\u7c894\u6bb524M 900g",
				"sell_point": "",
				"brand_id": 0,
				"brand_name": "",
				"market_price": 56800,
				"sales_price": 34800,
				"pic_url": "http:\/\/moresing-v3.img-cn-shanghai.aliyuncs.com\/201702\/ALSPxC6c5ZjXuWT8.jpg",
				"sold_quantity": 0,
				"quantity": 2148,
				"is_virtual": 0,
				"fx_item_id": 1026,
				"status": 1,
				"approve_status": 1,
				"sort_order": 100,
				"is_haitao": 0,
				"is_recommend": 0,
				"use_start_time": 0,
				"use_end_time": 0,
				"is_stars": 0,
				"is_buy": null,
				"is_collect": null
				}],
			"page": {
				"totalCount": 93,
				"pageCount": 12,
				"currentPage": 1,
				"perPage": 8
			}
		},
		"code": 200,
		"message": "OK",
		"success": true
	},
	"category": {
		"data": [{
			"id": 697,
			"shop_id": 1,
			"parent_id": 0,
			"name": "\u5c0f\u5c0f\u5206",
			"pic_url": "",
			"is_parent": 1,
			"sort_order": 100,
			"status": 1,
			"created_at": 1515045329,
			"updated_at": 1515045329,
			"children": [{
				"id": 699,
				"shop_id": 1,
				"parent_id": 697,
				"name": "\u732b\u54aa",
				"pic_url": "http:\/\/moresing-v3.img-cn-shanghai.aliyuncs.com\/201801\/oaiuTFszD7WGpX1t.jpg",
				"is_parent": 0,
				"sort_order": 100,
				"status": 1,
				"created_at": 1515045344,
				"updated_at": 1515045344
			}]
		}, {
			"id": 0,
			"shop_id": 1,
			"parent_id": 0,
			"name": "\u5176\u5b83",
			"pic_url": "",
			"is_parent": 1,
			"sort_order": 100,
			"status": 1
		}],
		"code": 200,
		"message": "OK",
		"success": true
	},
	"goods": {
		"data": {
			"items": [{
				"id": 3568,
				"shop_id": 1,
				"name": "\u3010\u884c\u8d27\u3011\u5927\u738b GOO.N \u7eb8\u5c3f\u88e4S58\u7247",
				"sell_point": "",
				"brand_id": 0,
				"brand_name": "",
				"market_price": 76000,
				"sales_price": 62400,
				"pic_url": "http:\/\/moresing-v3.img-cn-shanghai.aliyuncs.com\/201702\/8flj5QnA7xUrb3ND.jpg",
				"sold_quantity": 0,
				"quantity": 89,
				"is_virtual": 0,
				"fx_item_id": 1388,
				"status": 1,
				"approve_status": 1,
				"sort_order": 100,
				"is_haitao": 0,
				"is_recommend": 0,
				"use_start_time": 0,
				"use_end_time": 0,
				"is_stars": 0,
				"is_buy": null,
				"is_collect": null
			}],
			"_links": {
				"self": {
					"href": "http:\/\/api-goods-madian-dev.mamaqunaer.com\/v1\/mditem\/search?q=&shop_id=1&cid=699&per-page=8&page=1&sort=&is_haitao=2"
				}
			},
			"page": {
				"totalCount": 1,
				"pageCount": 1,
				"currentPage": 1,
				"perPage": 8
			}
		},
		"code": 200,
		"message": "OK",
		"success": true
	},
	"details": {
		"data": {
			"id": 3568,
			"user_id": 758,
			"shop_id": 1,
			"product_id": 0,
			"name": "\u3010\u884c\u8d27\u3011\u5927\u738b GOO.N \u7eb8\u5c3f\u88e4S58\u7247",
			"sell_point": "",
			"shop_cids": "699",
			"cid": 59,
			"cat_name": "",
			"brand_id": 0,
			"brand_name": "",
			"key_props": "1001:1007;3413:2711;",
			"key_props_str": "\u54c1\u724c:GOON\u5927\u738b\u5929\u4f7f;\u7eb8\u5c3f\u88e4\u5c3a\u7801:S58;",
			"props": "1001:1007;3413:2711;",
			"props_str": "\u54c1\u724c:GOON\u5927\u738b\u5929\u4f7f;\u7eb8\u5c3f\u88e4\u5c3a\u7801:S58;",
			"input_pids": "",
			"input_str": "",
			"market_price": 76000,
			"sales_price": 62400,
			"purchase_price": 48000,
			"weight": "0.000",
			"bulk": "0.000",
			"pic_url": "http:\/\/moresing-v3.img-cn-shanghai.aliyuncs.com\/201702\/8flj5QnA7xUrb3ND.jpg",
			"withhold_quantity": 0,
			"sold_quantity": 0,
			"quantity": 89,
			"sub_stock": 1,
			"tax_rate": "0.000",
			"is_virtual": 0,
			"is_free_shipping": 0,
			"is_fenxiao": 1,
			"fx_item_id": 1388,
			"fx_profit": 14400,
			"min_profit": 14400,
			"max_profit": 14400,
			"postage_id": 1,
			"province": "",
			"city": "",
			"has_sku": 0,
			"outer_id": "",
			"barcode": "",
			"status": 1,
			"approve_status": 1,
			"sort_order": 100,
			"mop_product_id": 63,
			"features": "",
			"version": 0,
			"start_sale_time": 0,
			"created_at": 1510045090,
			"updated_at": 1510045090,
			"is_haitao": 0,
			"is_recommend": 0,
			"recommend_time": 0,
			"is_zhuan": 0,
			"miao_id": 0,
			"use_start_time": 0,
			"use_end_time": 0,
			"video_id": 0,
			"is_stars": 0,
			"max_price": 0,
			"one_grate": 0,
			"two_grate": 0,
			"is_buy": null,
			"is_collect": 0,
			"ship_address": {
				"city": "\u676d\u5dde\u5e02",
				"city_code": "330100"
			},
			"attention_matters": null,
			"postage_name": null,
			"desc": "<img alt=\"\" src=\"http:\/\/pic2.moresing.com\/kindeditor\/php\/..\/attached\/image\/20170220\/20170220135343_63212.jpg\"><img alt=\"\" src=\"http:\/\/pic1.moresing.com\/kindeditor\/php\/..\/attached\/image\/20170220\/20170220135343_37527.jpg\"><img alt=\"\" src=\"http:\/\/pic1.moresing.com\/kindeditor\/php\/..\/attached\/image\/20170220\/20170220135343_83387.jpg\"><img alt=\"\" src=\"http:\/\/pic2.moresing.com\/kindeditor\/php\/..\/attached\/image\/20170220\/20170220135344_95490.jpg\"><img alt=\"\" src=\"http:\/\/pic2.moresing.com\/kindeditor\/php\/..\/attached\/image\/20170220\/20170220135344_78328.jpg\"><img alt=\"\" src=\"http:\/\/pic1.moresing.com\/kindeditor\/php\/..\/attached\/image\/20170220\/20170220135344_74260.jpg\"><img alt=\"\" src=\"http:\/\/pic2.moresing.com\/kindeditor\/php\/..\/attached\/image\/20170220\/20170220135344_65105.jpg\"><img alt=\"\" src=\"http:\/\/pic2.moresing.com\/kindeditor\/php\/..\/attached\/image\/20170220\/20170220135344_16353.jpg\"><img alt=\"\" src=\"http:\/\/pic1.moresing.com\/kindeditor\/php\/..\/attached\/image\/20170220\/20170220135344_65133.jpg\">",
			"skus": [],
			"prop_imgs": [],
			"item_imgs": [{
				"url": "http:\/\/moresing-v3.img-cn-shanghai.aliyuncs.com\/201702\/8flj5QnA7xUrb3ND.jpg"
			}],
			"video_url": ""
		},
		"code": 200,
		"message": "OK",
		"success": true
	},

	"address": {
		"data": [{
			"id": "119",
			"user_id": "448907",
			"consignee": "2222",
			"id_card": "",
			"province": "130000",
			"city": "130400",
			"district": "130406",
			"town": "",
			"area_name": "\u6cb3\u5317\u7701 \u90af\u90f8\u5e02 \u5cf0\u5cf0\u77ff\u533a",
			"address": "dsdsadsad",
			"zip_code": "12323",
			"mobile": "13454193338",
			"telphone": "",
			"created_at": "1506315000",
			"updated_at": "1506315000"
		}, {
			"id": "127",
			"user_id": "448907",
			"consignee": "\u859b\u5927\u5927\u4e0b\u5355",
			"id_card": "",
			"province": "110000",
			"city": "110100",
			"district": "110101",
			"town": "",
			"area_name": "\u5317\u4eac\u5e02 \u5317\u4eac\u5e02 \u4e1c\u57ce\u533a",
			"address": "\u8b66\u5bdf\u5c40\u5c31\u62d2\u7edd\u611f\u89c9",
			"zip_code": "000000",
			"mobile": "18758871254",
			"telphone": "",
			"created_at": "1506395556",
			"updated_at": "1506395556"
		}, {
			"id": "123",
			"user_id": "448907",
			"consignee": "\u6d4b\u8bd5",
			"id_card": "",
			"province": "130000",
			"city": "130100",
			"district": "130102",
			"town": "",
			"area_name": "\u6cb3\u5317\u7701 \u77f3\u5bb6\u5e84\u5e02 \u957f\u5b89\u533a",
			"address": "\u6c34\u7535\u8d39\u7f34\u7eb3\u53ef\u52b2\u513f\u653e\u6691\u5047",
			"zip_code": "1111",
			"mobile": "13323456789",
			"telphone": "",
			"created_at": "1506320538",
			"updated_at": "1506320538"
		}, {
			"id": "121",
			"user_id": "448907",
			"consignee": "sdsds",
			"id_card": "",
			"province": "140000",
			"city": "140200",
			"district": "140211",
			"town": "",
			"area_name": "\u5c71\u897f\u7701 \u5927\u540c\u5e02 \u5357\u90ca\u533a",
			"address": "22222",
			"zip_code": "1233",
			"mobile": "13454193338",
			"telphone": "",
			"created_at": "1506315889",
			"updated_at": "1506315889"
		}, {
			"id": "93",
			"user_id": "448907",
			"consignee": "\u5927\u5c4f",
			"id_card": "",
			"province": "330000",
			"city": "330100",
			"district": "330106",
			"town": "",
			"area_name": "\u6d59\u6c5f\u7701 \u676d\u5dde\u5e02 \u897f\u6e56\u533a",
			"address": "\u6d4b\u8bd5\u6536\u554a\u554a\u554a\u554a\u554a\u554a",
			"zip_code": "",
			"mobile": "13312341234",
			"telphone": "",
			"created_at": "1505875313",
			"updated_at": "1505875313"
		}, {
			"id": "91",
			"user_id": "448907",
			"consignee": "\u8428\u8fbe\u662f",
			"id_card": "",
			"province": "120000",
			"city": "120100",
			"district": "120102",
			"town": "",
			"area_name": "\u5929\u6d25 \u5929\u6d25\u5e02 \u6cb3\u4e1c\u533a",
			"address": "\u5b9e\u6253\u5b9e\u7684\u6492\u7684",
			"zip_code": "123456",
			"mobile": "13454193338",
			"telphone": "",
			"created_at": "1505820391",
			"updated_at": "1505820391"
		}],
		"code": 200,
		"message": "OK",
		"success": true
	},
	"address-default": {
		"data": {
			"id": "119",
			"user_id": "448907",
			"consignee": "2222",
			"id_card": "",
			"province": "130000",
			"city": "130400",
			"district": "130406",
			"town": "",
			"area_name": "\u6cb3\u5317\u7701 \u90af\u90f8\u5e02 \u5cf0\u5cf0\u77ff\u533a",
			"address": "dsdsadsad",
			"zip_code": "12323",
			"mobile": "13454193338",
			"telphone": "",
			"created_at": "1506315000",
			"updated_at": "1506315000"
		},
		"code": 200,
		"message": "OK",
		"success": true
	}
}
